1000 Yard Stare,ShortGaze SLH10,Eye of the Storm,Quickdraw,Hidden Hand
1000-Yard Stare,ShortGaze SLH10,Last Resort,Rifled Barrel/Skip Rounds,Firefly
20/20 AMR7,ShortGaze SLH10,Unflinching,Skip Rounds,Hidden Hand
44 Curtain Call,Linear Compensator/Accurized Ballistics/Field Choke,Performance Bonus,Reinforced Barrel/Rifled Barrel,Rangefinder
77 Wizard,Red Dot-OAS,Rangefinder,Rifled Barrel,Grenadier
Aegis of the Reef,Red Dot-OAS/SureShot IS,Perfect Balance,High Caliber Rounds,Counterbalance
An Answering Chord,SPO-28,Perfect Balance,Smallbore,Rangefinder
Angel's Advocate,Reflex,Life Support/Zen Moment,Perfect Balance,Hidden Hand
Antinomy XVI,ATA Scout,Unflinching,Performance Bonus,Quickdraw
Antipodal Hindsight,Reflex,Rangefinder,Rifled Barrel,Hidden Hand
Anton's Rule,SureShot IS/TrueSight IS,Zen Moment,Hand Loaded,Rangefinder/Hidden Hand
Aoife Rua-D,ATA Scout,Unflinching,Performance Bonus,Quickdraw
Apple of Discord,SC Holo,Headseeker,Counterbalance,Hand-laid Stock
Arminius-D,SC Holo,Crowd Control,Counterbalance,Braced Frame
Ashraven's Flight,Red Dot-OAS,Danger Close,Rifled Barrel,Rangefinder
Assembly II,Reflex,High Caliber Rounds,Perfect Balance,Counterbalance
B-29 Party Favor,Reflex,Feeding Frenzy,Perfect Balance/Hand-laid Stock,Counterbalance/Rangefinder
Bad Counsel IV,Aggressive Ballistics,Close and/or Personal,Quickdraw/Snapshot,Rangefinder
Badger CCL,Red Dot-OAS,Crowd Control,Hand-laid Stock,Hidden Hand
Bane of the Taken,Smooth Ballistics,Counterbalance,Perfect Balance,Hidden Hand
Baron's Ambition,Accurized Ballistics/Linear Compensator,Counterbalance/Life Support,Perfect Balance,Hidden Hand
Bitter Edge 010,ShortGaze SLH10,Quickdraw,Life Support,Hidden Hand
Blind Perdition (Adept),Smooth Ballistics/CQB Ballistics/Smart Drift Control,Hand-laid Stock/Smallbore,High Caliber Rounds/Hand Loaded,Counterbalance
Blind Perdition,Smooth Ballistics,Hand-laid Stock/Smallbore,High Caliber Rounds,Counterbalance
Bonekruscher,Linear Compensator,Feeding Frenzy,Quickdraw/Hand-laid Stock,Crowd Control
Bretomart's Stand,Linear Compensator,Hip Fire,Rifled Barrel,Hidden Hand
Burden of Proof XI,Linear Compensator/Accurized Ballistics/Field Choke,Rangefinder,Reinforced Barrel/Rifled Barrel,Performance Bonus
Burning Eye (Adept),Smart Drift Control,Smallbore,Explosive Rounds,Zen Moment/Third Eye
But Not Forgotten,Linear Compensator,Braced Frame,Quickdraw,Hidden Hand
Byronic Hero,SureShot IS/TrueSight IS,Rangefinder,Rifled Barrel,Hidden Hand
Chaotic Neutral,Linear Compensator,Hip Fire,Rifled Barrel,Hidden Hand
Cocytus SR4,Torch HS2,Life Support,Hand-laid Stock,Eye of the Storm
Colovance's Duty,Red Dot-OAS,Crowd Control,Hand-laid Stock,Hidden Hand
Conspiracy Theory-D,Smooth Ballistics/Field Choke,Rangefinder,Rifled Barrel/Reinforced Barrel,Performance Bonus
Conviction II,SureShot IS/TrueSight IS,Zen Moment,Hot Swap,High Caliber Rounds
Crow's Eye,Linear Compensator,Hand Loaded,High Caliber Rounds,Rangefinder
Cryptic Dragon,Red Dot-OAS,Crowd Control,Braced Frame,Reactive Reload
Darkblade's Spite,Red Dot-OAS,Danger Close,Rifled Barrel,Rangefinder
Deposition VII,ShortGaze SLH10,Snapshot,Mulligan,Unflinching
Devil's Dawn,Linear Compensator,Life Support,Quickdraw/Armor Piercing Rounds,Firefly
Diluvian 10/4X,Linear Compensator,Hip Fire,Braced Frame,Persistence
Disassembly Required,Warhead Verniers/Hard Launch,Battle Runner,Javelin,Grenades and Horseshoes
Doctrine of Passing (Adept),FastDraw IS,Persistence,Braced Frame,Counterbalance
Doctrine of Passing,FastDraw IS,Persistence,Braced Frame,Counterbalance
Does Not Bow,Red Dot-OAS,Rangefinder,Perfect Balance,Hidden Hand
Down and Doubt 00-0,SureShot IS/TrueSight IS,Luck in the Chamber,Rifled Barrel,Icarus
Dreg's Promise,Soft Ballistics/Aggressive Ballistics,Grave Robber,Perfect Balance,Shock Rounds
Each New Day,Reflex,Life Support,Rifled Barrel,Rangefinder
Eirene RR4,Faucon SS1,Performance Bonus,Quickdraw,Unflinching
Event Horizon,ShortGaze SLH10,Spray and Play/Grenadier/Spray and Pray,Smallbore/Quickdraw,Hidden Hand
Ex Astris,Reflex,Life Support,Rifled Barrel,Rangefinder
Extrasolar RR4,ShortGaze SLH10,Eye of the Storm,Quickdraw,Hidden Hand
Extremophile 011,Reflex,High Caliber Rounds,Perfect Balance,Counterbalance
Eyasluna,SureShot IS/TrueSight IS,Rangefinder,Rifled Barrel,Hidden Hand
Final Duty,Reflex,Headseeker,Perfect Balance,Feeding Frenzy
Finnala's Peril,SureShot IS/TrueSight IS,Rangefinder,Rifled Barrel,Hidden Hand
First Citizen IX,Linear Compensator,Hip Fire,Perfect Balance,Persistence
Free Will III,SureShot IS/TrueSight IS,Explosive Rounds,Hammer Forged,Rangefinder
GENESIS CHAIN~,Linear Compensator,Focused Fire,Hammer Forged/High Caliber Rounds,Focused Firefly
Gatheris-D,SureShot IS/TrueSight IS,Crowd Control,Rangefinder,Reinforced Barrel
Grasp of Malok,Red Dot-OAS,Counterbalance,Braced Frame/Smallbore/Perfect Balance,Feeding Frenzy
Grim Citizen III,Red Dot-OAS,Rangefinder,Perfect Balance,Hidden Hand
Haakon's Hatchet,Red Dot-OAS,Rangefinder,Smallbore,Counterbalance
Hand of Judgement,Red Dot-OAS,Hand-laid Stock,Explosive Rounds,Hidden Hand/Zen Moment
Hard Light,Accurized Ballistics,Volatile Light,Fitted Stock,Glass Half Full
Havoc Pigeon,SureShot IS/TrueSight IS,Zen Moment,Hot Swap,High Caliber Rounds
Hawkmoon,Accurized Ballistics,Luck in the Chamber,Hammer Forged,Holding Aces
Hawksaw,SLO-19/SPO-28,Fitted Stock/Perfect Balance,Counterbalance,Smallbore/Rifled Barrel
Her Champion,Linear Compensator/Accurized Ballistics/Field Choke,Rangefinder,Reinforced Barrel/Rifled Barrel,Performance Bonus
Her Fury,ShortGaze SLH10,Life Support,Quickdraw,Hidden Hand
Her Memory,Reflex/Sureshot IS,Rangefinder,Perfect Balance,Counterbalance
Her Revenge,SureShot IS/TrueSight IS,Rangefinder,Rifled Barrel,Hidden Hand/Icarus
Herja-D,SC Holo,Headseeker,Counterbalance,Hand-laid Stock
Hex Caster ARC,Red Dot-OAS,Persistence,Perfect Balance,Life Support
Hitchhiker FR4,Reflex,Danger Close,Rifled Barrel,Rangefinder
Hopscotch Pilgrim,Red Dot-OAS,Headseeker,Perfect Balance,Full Auto
How Dare You,SureShot IS/TrueSight IS,Icarus,Rifled Barrel,Rangefinder
Ill Will,SureShot IS,Rangefinder,Braced Frame,Luck in the Chamber
Imago Loop,SureShot IS/TrueSight IS,Rangefinder,Rifled Barrel,Hidden Hand/Icarus
Impeacher V,SureShot IS/TrueSight IS,High Caliber Rounds/Quickdraw,Hand Loaded,Rangefinder/Hidden Hand
Invective,Accurized Ballistics,Final Round,Send It,Invective
Ironwreath-D,SureShot IS/TrueSight IS,Zen Moment,Hot Swap,Reinforced Barrel/Quickdraw/High Caliber Rounds
JabberHakke-D,SureShot IS/TrueSight IS,Zen Moment,Hot Swap,High Caliber Rounds
Jingukogo-D,Linear Compensator/Accurized Ballistics/Field Choke,Final Round,Rangefinder,Rifled Barrel
Judith-D,SureShot IS/TrueSight IS,Crowd Control,Final Round/Reactive Reload,Speed Reload
Keystone 01,Reflex,Explosive Rounds,Perfect Balance,Hidden Hand
Kumakatok HC-4,SureShot IS/TrueSight IS,Luck in the Chamber,Braced Frame,Icarus
LDR 5001,ShortGaze SLH10,Life Support,Quickdraw,Hidden Hand
Last-Ditch 001,CQB Ballistics,Quickdraw,Hammer Forged,Rangefinder
Lethe Noblesse,Reflex,Crowd Control,Hand-laid Stock,Hidden Hand
Long Far Gone,Reflex,Danger Close,Braced Frame,Rangefinder
Lord High Fixer,SureShot IS/TrueSight IS,Rangefinder,Rifled Barrel,Hidden Hand/Icarus
Lyudmila-D,SC Holo,Headseeker,Counterbalance,Hand-laid Stock
MIDA Multi-Tool,Soft Ballistics,Third Eye,Lightweight,MIDA Multi-Tool
Matador 64,Aggressive Ballistics,Full Auto/Performance Bonus,Reinforced Barrel/Rifled Barrel,Rangefinder
Monte Carlo,Smart Drift Control,Hip Fire,Send It/High Caliber Rounds,Monte Carlo Method
NL Shadow 701X,Red Dot-OAS,Zen Moment,Explosive Rounds,Hidden Hand
Name,PerkOne,PerkTwo,PerkThree,PerkFour
Nirwen's Mercy,Red Dot-OAS,Counterbalance,Braced Frame,Feeding Frenzy
No Land Beyond,CQB Ballistics,Mulligan,Snapshot,The Master
Not Like the Others,Reflex,Zen Moment,Explosive Rounds,Hidden Hand
Objection IV,Linear Compensator,Hip Fire,Rifled Barrel,Hidden Hand
Occam's Razor,Linear Compensator/Accurized Ballistics/Field Choke,Performance Bonus,Reinforced Barrel/Rifled Barrel,Rangefinder
Paleocontact JPK-43,Reflex,Rangefinder,Rifled Barrel,Counterbalance
Parthian Shot,SteadyHand IS/Reflex,Rodeo/Feeding Frenzy,Perfect Balance/Hand-laid Stock,Headseeker
Party Crasher +1,Aggressive Ballistics,Rangefinder,Rifled Barrel/Reinforced Barrel,Performance Bonus
Patch-A,Linear Compensator/Accurized Ballistics/Field Choke,Rangefinder,Rifled Barrel,Close and/or Personal
Phanta Rei,Reflex,Danger Close,Rifled Barrel,Rangefinder
Queen's Choice,Linear Compensator,Rangefinder/Zen Moment,High Caliber Rounds,Hot Swap
Red Death,Accurized Ballistics,Unflinching,High Caliber Rounds,Red Death
Red Spectre,Red Dot-OAS,Rangefinder,Perfect Balance,Hidden Hand
Ruin Wake,Linear Compensator,Hip Fire,Rifled Barrel,Hidden Hand
SUROS ARI-41,SPO-28,Perfect Balance,Rifled Barrel,Counterbalance
SUROS ARI-45,SPO-28,Perfect Balance,Rifled Barrel,Counterbalance
SUROS DIS-43,SPO-28,Perfect Balance/Hammer Forged,Hidden Hand,Smallbore/Hand-laid Stock
SUROS DIS-47,SPO-28,Perfect Balance/Hammer Forged,Full Auto,Smallbore/Hand-laid Stock
SUROS JLB-42,Warhead Verniers/Hard Launch,Heavy Payload,Grenades and Horseshoes,Javelin
SUROS JLB-47,Warhead Verniers/Hard Launch,Heavy Payload,Grenades and Horsehoes,Javelin
SUROS PDX-41,SPO-28,Perfect Balance,Hidden Hand,Smallbore
SUROS PDX-45,SLO-19/SPO-28,Perfect Balance,Full Auto/Counterbalance,Rifled Barrel/Smallbore
SUROS Regime,Smart Drift Control,Focused Fire,SUROS Legacy,Hammer Forged
Saladin's Vigil,Linear Compensator,Rifled Barrel/Perfect Balance,Quickdraw/Lightweight,Rangefinder
Seventh Sense,ViewTac SLH20/Ambush SLH25,Grenadier,Quickdraw,Firefly
Shadow Price,Red Dot-OAS,Rangefinder,Perfect Balance,Hidden Hand
Something Wicked,Warhead Verniers/Hard Launch,Battle Runner,Heavy Payload,Grenades and Horseshoes
Soulstealer's Claw,Red Dot-OAS,Perfect Balance,Single Point Sling,Counterbalance
Spare Change .25,Red Dot-OAS,Counterbalance,Braced Frame,Feeding Frenzy
Split Shifter Pro,Red Dot-OAS,Hip Fire,Braced Frame,Hot Swap
Steel Oracle Z-11,Warhead Verniers/Hard Launch,Tripod,Field Scout,Grenades and Horseshoes
Stillpiercer,Smooth Ballistics,Perfectionist,Snapshot,Self Spotter
Stolen Pride,TrueSight IS,Rifled Barrel,Explosive Rounds,Rangefinder
Stolen Will,Linear Compensator/Accurized Ballistics/Field Choke,Rangefinder,Reinforced Barrel/Rifled Barrel,Performance Bonus
Strongbow-D,Linear Compensator/Accurized Ballistics/Field Choke,Close and/or Personal,Rangefinder,Rifled Barrel
Tamar-D,ATA Scout,Unflinching,Performance Bonus,Quickdraw
Tao Hua Yuan,ShortGaze SLH10,Eye of the Storm,Quickdraw,Hidden Hand
Teacup Tempest,SureShot IS/TrueSight IS,Zen Moment,High Caliber Rounds,Rangefinder
Techuen Rage,SureShot IS/Reflex,Danger Close,Rifled Barrel,Rangefinder
The Ash Factory,Warhead Verniers/Hard Launch,Tripod,Javelin,Grenades and Horseshoes
The Binding Blaze,Iron Lordly Sights,Hand Loaded/Fitted Stock,High Caliber Rounds,Rangefinder/Hidden Hand/Zen Moment
The Branded Lord,Linear Compensator,Rifled Barrel,Quickdraw,Rangefinder
The Clever Dragon,Iron Red Dot,Braced Frame/Perfect Balance,High Caliber Rounds,Counterbalance
The Comedian,Linear Compensator/Accurized Ballistics/Field Choke,Full Auto,Reinforced Barrel/Rifled Barrel,Performance Bonus
The Continental,Reflex,Crowd Control,Braced Frame,Counterbalance
The Dealbreaker,SC Holo,Crowd Control,Rangefinder,Rifled Barrel
The Devil You Know,SureShot IS/TrueSight IS,Rangefinder,Rifled Barrel,Icarus
The Distant Star,Iron Ranged Scope,Perfect Balance,Full Auto/Explosive Rounds,Zen Moment/Hidden Hand
The Hero Formula,Reflex,Life Support/Zen Moment,Braced Frame,Hidden Hand
The Jade Rabbit,Smart Drift Control,Spray and Play,Extended Mag,Zen Moment
The Last Word,Soft Ballistics,Hip Fire,Perfect Balance,Last Word
The Laughing Heart,Linear Compensator,Injection Mold,Quickdraw,Hidden Hand
The Lingering Song,Iron Lordly Sights,Braced Frame,Feather Mag,Luck in the Chamber
The Next Big Thing,Linear Compensator/Accurized Ballistics/Field Choke,Rangefinder,Rifled Barrel,Close and/or Personal
The Nightmare,Warhead Verniers/Hard Launch,Tripod,Field Scout,Grenades and Horseshoes
The Palindrome,TrueSight IS/SureShot IS,Mulligan/Spray and Play/Icarus,Rifled Barrel,Rangefinder
The Proud Spire,Linear Compensator,Reinforced Barrel/Rifled Barrel,Quickdraw/Snapshot,Rangefinder
The Revelator,SureShot IS/TrueSight IS,Rangefinder,Rifled Barrel,Hidden Hand
The Saterienne Rapier,Red Dot-OAS,Crowd Control,Explosive Rounds,Reactive Reload
The Silvered Dread,Linear Compensator,Perfect Balance,Field Scout,Hidden Hand
The Swarm,Linear Compensator,Life Support,Rifled Barrel,Rangefinder
The Titanium Orchid,Hard Launch/Aggressive Launch,Heavy Payload,Speed Reload/Flared Magwell,Grenades and Horseshoes
The Unbent Tree,Iron Ranged Scope,Braced Frame,Single Point Sling,Counterbalance
The Vacancy,Torch HS2,Hot Swap,Quickdraw,Rangefinder
The Vanity,SureShot IS/TrueSight IS,Luck in the Chamber,Rifled Barrel,Icarus
The Variable,Linear Compensator,Hip Fire,Braced Frame,Persistence
The Vertigo,Warhead Verniers/Hard Launch,Heavy Payload,Grenades and Horseshoes,Javelin
The Villainy,Red Dot-OAS,Counterbalance,Braced Frame,Feeding Frenzy
The Vortex,Reflex,Danger Close,Rifled Barrel,Rangefinder
The Wail,SureShot IS/TrueSight IS,Outlaw,Hammer Forged,Rangefinder
The Waiting,Reflex,Quickdraw,Hammer Forged,Rangefinder
The Waltz,Reflex,High Caliber Rounds,Smallbore,Counterbalance
The Warpath,Warhead Verniers/Hard Launch,Field Scout,Javelin,Grenades and Horseshoes
The Winged Word,Smooth Ballistics/Linear Compensator,Perfect Balance/Injection Mold,Snapshot,Unflinching
The Wormwood,TrueSight IS/FastDraw IS/QuickDraw IS/SureShot IS,High Caliber Rounds/Quickdraw,Hand Loaded/Zen Moment/Fitted Stock,Hidden Hand/Rangefinder
The Wounded,Reflex,Explosive Rounds,Perfect Balance,Hidden Hand
Thesan FR4,Torch HS2,Hot Swap,Quickdraw,Rangefinder
Thorn,Accurized Ballistics,Final Round,Send It,Mark of the Devourer
Tormod's Bellows,Warhead Verniers/Hard Launch,Tripod,Heavy Payload,Grenades and Horseshoes
Treads Upon Stars,Red Dot-OAS,Crowd Control,Braced Frame,Hidden Hand
Trespasser,SureShot IS,Relentless Tracker,Reinforced Barrel,Unrepentant
Tuonela SR4,Torch HS2,Life Support,Extended Mag,Zen Moment/Third Eye
Two to the Morgue,Linear Compensator/Accurized Ballistics/Field Choke,Rangefinder,Reinforced Barrel/Rifled Barrel,Performance Bonus
Uffren HC4,SureShot IS/TrueSight IS,Luck in the Chamber,Rifled Barrel,Icarus
Unending Deluge III,Linear Compensator,Counterbalance,Perfect Balance,Rangefinder
Universal Remote,Smooth Ballistics,Crowd Control,Hammer Forged,Universal Remote
Unraveling Thread,CQB Ballistics,Hammer Forged,Hand Loaded,Rangefinder
Unto Dust 00,Warhead Verniers/Hard Launch,Field Scout,Heavy Payload,Grenades and Horseshoes
Uzume RR4,Faucon SS1,Performance Bonus,Quickdraw,Unflinching
Vision Stone,Smart Drift Control,Send It,Hand Loaded,Crowd Control
Weyloran's March,ShortGaze SLH10,Eye of the Storm,Quickdraw,Hidden Hand
Winter's End,Linear Compensator,Rifled Barrel,Lightweight,Life Support/Performance Bonus
Worlds to Come 001,Reflex,Snapshot,Hammer Forged,Rangefinder
Y-09 Longbow Synthesis,ShortGaze SLH10,Life Support,Quickdraw,Hidden Hand
ZEAL VECTOR~,Smart Drift Control,Reactive Reload,Hand Loaded,Quick Reaction
Zarinaea-D,SC Holo,Crowd Control,Rangefinder,Braced Frame
Zero-Day Dilemma,Reflex,Crowd Control,Perfect Balance,Hidden Hand
Zombie Apocalypse WF47,Linear Compensator/Accurized Ballistics/Field Choke,Life Support/Counterbalance,Perfect Balance,Hidden Hand
